…
unique(Grab[c(4,6)])
## # A tibble: 52 × 2
##    Pcode    Units     
##    <chr>    <chr>     
##  1 COND     uS/cm @25C
##  2 DOSAT    %         
##  3 DO       mg/l      
##  4 PH       std units 
##  5 NO3_N    mg/l      
##  6 TEMPWC   degC      
##  7 FLOW_CMS cms       
##  8 TSS      mg/l      
##  9 TURB     NTU       
## 10 NO3O2_N  mg/l      
## # … with 42 more rows
```
…
